{
  "project_info": {
    "project_number": "154587027345",
    "firebase_url": "https://fir-notifiche-9121c.firebaseio.com",
    "project_id": "fir-notifiche-9121c",
    "storage_bucket": "fir-notifiche-9121c.appspot.com"
  },
  "client": [
    {
      "client_info": {
        "mobilesdk_app_id": "1:154587027345:android:4a094c904d7b72bb",
        "android_client_info": {
          "package_name": "com.phonegap.eyecontrol"
        }
      },
      "oauth_client": [
        {
          "client_id": "154587027345-jr9bntih9h49r2lke89rpta6583figvo.apps.googleusercontent.com",
          "client_type": 3
        }
      ],
      "api_key": [
        {
          "current_key": "AIzaSyBqlELkT_eMuabpBKPLv5177dJA4FpT-kI"
        }
      ],
      "services": {
        "analytics_service": {
          "status": 1
        },
        "appinvite_service": {
          "status": 1,
          "other_platform_oauth_client": []
        },
        "ads_service": {
          "status": 2
        }
      }
    }
  ],
  "configuration_version": "1"
}