{
  "cordova-plugin-whitelist": {
    "source": {
      "type": "registry",
      "id": "cordova-plugin-whitelist@1"
    },
    "is_top_level": true,
    "variables": {}
  },
  "phonegap-plugin-push": {
    "source": {
      "type": "registry",
      "id": "phonegap-plugin-push@2.1.3"
    },
    "is_top_level": true,
    "variables": {}
  },
  "cordova-plugin-firebasex": {
    "source": {
      "type": "registry",
      "id": "cordova-plugin-firebasex"
    },
    "is_top_level": true,
    "variables": {
      "FIREBASE_ANALYTICS_COLLECTION_ENABLED": "true",
      "FIREBASE_PERFORMANCE_COLLECTION_ENABLED": "true",
      "FIREBASE_CRASHLYTICS_COLLECTION_ENABLED": "true",
      "ANDROID_ICON_ACCENT": "#FF00FFFF",
      "ANDROID_PLAY_SERVICES_TAGMANAGER_VERSION": "17.0.0",
      "ANDROID_FIREBASE_CORE_VERSION": "17.0.0",
      "ANDROID_FIREBASE_MESSAGING_VERSION": "19.0.0",
      "ANDROID_FIREBASE_CONFIG_VERSION": "18.0.0",
      "ANDROID_FIREBASE_PERF_VERSION": "18.0.0",
      "ANDROID_FIREBASE_AUTH_VERSION": "18.0.0",
      "ANDROID_CRASHLYTICS_VERSION": "2.10.1",
      "ANDROID_CRASHLYTICS_NDK_VERSION": "2.1.0",
      "ANDROID_SHORTCUTBADGER_VERSION": "1.1.22"
    }
  },
  "cordova-plugin-androidx": {
    "source": {
      "type": "registry",
      "id": "cordova-plugin-androidx@^1.0.2"
    },
    "is_top_level": false,
    "variables": {}
  },
  "cordova-plugin-androidx-adapter": {
    "source": {
      "type": "registry",
      "id": "cordova-plugin-androidx-adapter@^1.1.0"
    },
    "is_top_level": false,
    "variables": {}
  }
}